Diverging Plots • tcdsb
…
survey_results_4
#> # A tibble: 30 × 3
#>    Question response          percent
#>    <chr>    <chr>               <dbl>
#>  1 Q1       Strongly Disagree  0.156 
#>  2 Q1       Disagree           0.121 
#>  3 Q1       Neutral            0.112 
#>  4 Q1       Agree              0.174 
#>  5 Q1       Strongly Agree     0.115 
#>  6 Q1       Missing            0.124 
#>  7 Q2       Strongly Disagree  0.0674
#>  8 Q2       Disagree           0.0343
#>  9 Q2       Neutral            0.224 
#> 10 Q2       Agree              0.210 
#> # ℹ 20 more rows

survey_results_6
#> # A tibble: 40 × 3
#>    Question response          percent
#>    <chr>    <chr>               <dbl>
#>  1 Q1       Strongly Disagree  0.155 
#>  2 Q1       Somewhat Disagree  0.0220
#>  3 Q1       Disagree           0.0892
#>  4 Q1       Neutral            0.0638
#>  5 Q1       Agree              0.189 
#>  6 Q1       Somewhat Agree     0.104 
#>  7 Q1       Strongly Agree     0.188 
#>  8 Q1       Missing            0.189 
#>  9 Q2       Strongly Disagree  0.197 
#> 10 Q2       Somewhat Disagree  0.109 
#> # ℹ 30 more rows
…
